Statistics-summarised.knit
…
a binary response,

and a numeric response

library(tidyverse)
set.seed(250310)
dat <- tibble(group_1 = rep(c("A","B"), each = 40),
              group_2 = rep(c("a", "b", "c", "d"), each = 20),
              numeric_explanatory = runif(80),
              nominal_response = sample(c("a", "b", "c"), 80, replace = T),
              binary_response = sample(c("a", "b"), 80, replace = T),
              numeric_response = rnorm(80) + (group_1 == "A") + numeric_explanatory)
dat

## # A tibble: 80 × 6
##    group_1 group_2 numeric_explanatory nominal_response binary_response
##    <chr>   <chr>                 <dbl> <chr>            <chr>          
##  1 A       a                    0.235  b                a              
##  2 A       a                    0.310  b                b              
##  3 A       a                    0.244  b                b              
##  4 A       a                    0.568  b                a              
##  5 A       a                    0.0716 b                b              
##  6 A       a                    0.386  b                b              
##  7 A       a                    0.509  b                b              
##  8 A       a                    0.458  c                a              
##  9 A       a                    0.399  c                b              
## 10 A       a                    0.647  c                b              
## # ℹ 70 more rows
## # ℹ 1 more variable: numeric_response <dbl>
…
