Introduction-to-R.knit
…
Base R and add-on packages include multiple functions to import
data

The specific choice of function depends on the data type

The file path can be specified relative a working directory
- the base folder of the current R session

dat_tv <- read.table("Data/IMDb_Economist_tv_ratings.csv", header = T, sep = ",", dec = ".")

library(readxl)
dat_tv <- read_excel("Data/IMDb_Economist_tv_ratings.xlsx")
dat_tv

## # A tibble: 2,266 × 7
##    titleId   seasonNumber title       date                av_rating share genres
##    <chr>            <dbl> <chr>       <dttm>                  <dbl> <dbl> <chr> 
##  1 tt2879552            1 11.22.63    2016-03-10 00:00:00      8.49  0.51 Drama…
##  2 tt3148266            1 12 Monkeys  2015-02-27 00:00:00      8.34  0.46 Adven…
##  3 tt3148266            2 12 Monkeys  2016-05-30 00:00:00      8.82  0.25 Adven…
##  4 tt3148266            3 12 Monkeys  2017-05-19 00:00:00      9.04  0.19 Adven…
##  5 tt3148266            4 12 Monkeys  2018-06-26 00:00:00      9.14  0.38 Adven…
##  6 tt1837492            1 13 Reasons… 2017-03-31 00:00:00      8.44  2.38 Drama…
##  7 tt1837492            2 13 Reasons… 2018-05-18 00:00:00      7.51  2.19 Drama…
##  8 tt0285331            1 24          2002-02-16 00:00:00      8.56  6.67 Actio…
##  9 tt0285331            2 24          2003-02-09 00:00:00      8.70  7.13 Actio…
## 10 tt0285331            3 24          2004-02-09 00:00:00      8.72  5.88 Actio…
## # ℹ 2,256 more rows
…
Aggregating calculates a summary value over a subset of values

We calculate mean rating across seasons

Using the aggregate function

aggregate(av_rating ~ title, dat_tv, FUN = mean)

Using piping, group_by and summarise

dat_tv %>% 
  group_by(title) %>% 
  summarise(mean_rating = mean(av_rating))

## # A tibble: 868 × 2
##    title                mean_rating
##    <chr>                      <dbl>
##  1 11.22.63                    8.49
##  2 12 Monkeys                  8.83
##  3 13 Reasons Why              7.97
##  4 24                          8.58
##  5 24: Legacy                  7.20
##  6 24: Live Another Day        8.90
##  7 39814                       8.27
##  8 666 Park Avenue             7.47
##  9 7th Heaven                  7   
## 10 8 Simple Rules              8.17
## # ℹ 858 more rows
…
